<?xml version="1.0" encoding="UTF-8" standalone="no"?>
<!-- Created with Inkscape (http://www.inkscape.org/) -->

<svg
   xmlns:dc="http://purl.org/dc/elements/1.1/"
   xmlns:cc="http://creativecommons.org/ns#"
   xmlns:rdf="http://www.w3.org/1999/02/22-rdf-syntax-ns#"
   xmlns:svg="http://www.w3.org/2000/svg"
   xmlns="http://www.w3.org/2000/svg"
   xmlns:sodipodi="http://sodipodi.sourceforge.net/DTD/sodipodi-0.dtd"
   xmlns:inkscape="http://www.inkscape.org/namespaces/inkscape"
   id="svg2"
   version="1.1"
   inkscape:version="0.91 r13725"
   xml:space="preserve"
   width="19.846664"
   height="20"
   viewBox="0 0 19.846665 20"
   sodipodi:docname="members.svg"><metadata
     id="metadata8"><rdf:RDF><cc:Work
         rdf:about=""><dc:format>image/svg+xml</dc:format><dc:type
           rdf:resource="http://purl.org/dc/dcmitype/StillImage" /><dc:title></dc:title></cc:Work></rdf:RDF></metadata><defs
     id="defs6"><clipPath
       clipPathUnits="userSpaceOnUse"
       id="clipPath16"><path
         d="m 0,0 2000,0 0,3050 L 0,3050 0,0 Z"
         id="path18"
         inkscape:connector-curvature="0" /></clipPath></defs><sodipodi:namedview
     pagecolor="#ffffff"
     bordercolor="#666666"
     borderopacity="1"
     objecttolerance="10"
     gridtolerance="10"
     guidetolerance="10"
     inkscape:pageopacity="0"
     inkscape:pageshadow="2"
     inkscape:window-width="1366"
     inkscape:window-height="669"
     id="namedview4"
     showgrid="false"
     fit-margin-top="0"
     fit-margin-left="0"
     fit-margin-right="0"
     fit-margin-bottom="0"
     inkscape:zoom="11.205394"
     inkscape:cx="-11.043449"
     inkscape:cy="11.541354"
     inkscape:window-x="-8"
     inkscape:window-y="304"
     inkscape:window-maximized="1"
     inkscape:current-layer="g10" /><g
     id="g10"
     inkscape:groupmode="layer"
     inkscape:label="Vektor-Smartobjekt4"
     transform="matrix(1.25,0,0,-1.25,-1839.7555,3629.3409)"><g
       id="g12"
       transform="matrix(0.7813263,0,0,0.7813263,321.84491,631.41433)"><g
         id="g14"
         clip-path="url(#clipPath16)"><g
           id="g20"
           transform="translate(1489.2134,2907.9507)"><path
             d="m 0,0 -14.497,0 c -1.601,0 -2.912,-1.311 -2.912,-2.913 l 0,-10.208 c 0,-1.601 1.311,-2.912 2.912,-2.912 l 4.234,0 3.013,-4.445 3.012,4.445 4.238,0 c 1.601,0 2.912,1.311 2.912,2.912 l 0,10.208 C 2.912,-1.311 1.601,0 0,0"
             style="fill:#2d2c2e;fill-opacity:1;fill-rule:nonzero;stroke:none"
             id="path22"
             inkscape:connector-curvature="0" /></g><g
           id="g24"
           transform="translate(1487.2925,2896.0093)"><path
             d="m 0,0 0,-1.803 -1.936,0 0,3.107 -0.486,0 0,-3.591 -2.906,0 -2.906,0 0,3.591 -0.485,0 0,-3.107 -1.937,0 0,1.803 c 0,2.683 0,4.696 5.328,4.696 C 0,4.696 0,2.683 0,0 m -7.054,7.814 c -10e-4,0.806 0.295,1.58 0.771,1.874 0.533,0.328 0.877,-0.107 0.441,-0.543 -0.348,-0.347 -0.522,-0.784 -0.546,-1.331 -0.019,-0.453 -0.665,-0.388 -0.666,0 m 1.726,-2.635 c 1.318,0 2.422,1.271 2.422,2.665 0,1.998 -1.101,2.664 -2.422,2.664 -1.32,0 -2.422,-0.666 -2.422,-2.664 0,-1.394 1.104,-2.665 2.422,-2.665"
             style="fill:#ffffff;fill-opacity:1;fill-rule:nonzero;stroke:none"
             id="path26"
             inkscape:connector-curvature="0" /></g></g></g></g></svg>
