<?xml version="1.0" encoding="UTF-8" standalone="no"?>
<!-- Created with Inkscape (http://www.inkscape.org/) -->

<svg
   xmlns:dc="http://purl.org/dc/elements/1.1/"
   xmlns:cc="http://creativecommons.org/ns#"
   xmlns:rdf="http://www.w3.org/1999/02/22-rdf-syntax-ns#"
   xmlns:svg="http://www.w3.org/2000/svg"
   xmlns="http://www.w3.org/2000/svg"
   xmlns:sodipodi="http://sodipodi.sourceforge.net/DTD/sodipodi-0.dtd"
   xmlns:inkscape="http://www.inkscape.org/namespaces/inkscape"
   id="svg2"
   version="1.1"
   inkscape:version="0.91 r13725"
   xml:space="preserve"
   width="17.020184"
   height="8"
   viewBox="0 0 17.020183 8"
   sodipodi:docname="view.svg"><metadata
     id="metadata8"><rdf:RDF><cc:Work
         rdf:about=""><dc:format>image/svg+xml</dc:format><dc:type
           rdf:resource="http://purl.org/dc/dcmitype/StillImage" /><dc:title></dc:title></cc:Work></rdf:RDF></metadata><defs
     id="defs6"><clipPath
       clipPathUnits="userSpaceOnUse"
       id="clipPath16"><path
         d="m 0,0 2018,0 0,3060 L 0,3060 0,0 Z"
         id="path18"
         inkscape:connector-curvature="0" /></clipPath></defs><sodipodi:namedview
     pagecolor="#ffffff"
     bordercolor="#666666"
     borderopacity="1"
     objecttolerance="10"
     gridtolerance="10"
     guidetolerance="10"
     inkscape:pageopacity="0"
     inkscape:pageshadow="2"
     inkscape:window-width="1366"
     inkscape:window-height="669"
     id="namedview4"
     showgrid="false"
     fit-margin-top="0"
     fit-margin-left="0"
     fit-margin-right="0"
     fit-margin-bottom="0"
     inkscape:zoom="7.8975163"
     inkscape:cx="-11.57997"
     inkscape:cy="4.3006768"
     inkscape:window-x="-8"
     inkscape:window-y="304"
     inkscape:window-maximized="1"
     inkscape:current-layer="g12" /><g
     id="g10"
     inkscape:groupmode="layer"
     inkscape:label="Vektor-Smartobjekt1"
     transform="matrix(1.25,0,0,-1.25,-689.84312,1159.2234)"><g
       id="g12"><g
         id="g14"
         clip-path="url(#clipPath16)"
         transform="matrix(0.8555006,0,0,0.8555006,79.745533,133.08087)"><g
           id="g20"
           transform="translate(559.8325,927.1813)"><path
             d="m 0,0 c -1.359,0 -2.461,-1.102 -2.461,-2.462 0,-1.359 1.102,-2.461 2.461,-2.461 1.36,0 2.462,1.102 2.462,2.461 C 2.462,-1.102 1.36,0 0,0 m 0,-3.37 c -0.501,0 -0.908,0.407 -0.908,0.909 0,0.502 0.407,0.908 0.908,0.908 0.502,0 0.909,-0.406 0.909,-0.908 C 0.909,-2.963 0.502,-3.37 0,-3.37"
             style="fill:#2d2c2e;fill-opacity:1;fill-rule:nonzero;stroke:none"
             id="path22"
             inkscape:connector-curvature="0" /></g><g
           id="g24"
           transform="translate(559.8325,920.9787)"><path
             d="m 0,0 c -3.019,0 -5.514,1.107 -7.626,3.383 l -0.332,0.358 0.332,0.357 C -5.514,6.374 -3.019,7.481 0,7.481 3.019,7.481 5.514,6.374 7.626,4.098 L 7.958,3.741 7.626,3.383 C 5.514,1.107 3.019,0 0,0 M -6.511,3.741 C -4.088,1.338 -1.651,1.05 0,1.05 1.651,1.05 4.088,1.338 6.511,3.741 4.088,6.144 1.651,6.431 0,6.431 c -1.651,0 -4.088,-0.287 -6.511,-2.69"
             style="fill:#2d2c2e;fill-opacity:1;fill-rule:nonzero;stroke:none"
             id="path26"
             inkscape:connector-curvature="0" /></g></g></g></g></svg>
